Nom de l'Objet, Type, Niveau, Vitalité, Sagesse, Intelligence, Force, Agilité, Chance, Initiative, Puissance, Dommage Critique, Dommage Poussée, Dommage Neutre, Dommage Feu, Dommage Terre, Dommage Eau, Dommage Air, Dommage, Résistance Critique, Résistance Poussée, Résistance Neutre, Résistance Feu, Résistance Terre, Résistance Eau, Résistance Air, Résistance % Neutre, Résistance % Feu, Résistance % Terre, Résistance % Eau, Résistance % Air, Renvoi Dommage, Dommage % Piège, Dommage Piège, Esquive PA, Esquive PM, Retrait PA, Retrait PM, Prospection, Pod, Fuite, Tacle, Critique, Invocation, Soin, Portée, PA, PM
Sabots de Farle,Bottes,80,50,0,0,30,30,0,0,0,0,0,0,0,0,0,0,2,0,0,0,4,0,4,4,0,0,0,5,0,0,0,0,0,0,0,0,0,0,0,0,2,0,0,0,0,1
Sabots de Shika,Bottes,80,50,0,30,0,30,0,0,0,0,0,0,0,0,0,0,2,0,0,0,4,0,4,4,0,0,0,0,5,0,0,0,0,0,0,0,0,0,0,0,2,0,0,0,0,1
Bloptes Coco Royales,Bottes,80,40,0,0,0,0,30,0,0,0,0,0,0,0,0,0,0,0,0,0,0,0,0,0,0,0,0,0,8,0,0,0,0,0,0,0,0,0,0,0,3,1,0,1,0,1
Bloptes Indigo Royales,Bottes,80,40,0,0,0,30,0,0,0,0,0,0,0,0,0,0,0,0,0,0,0,0,0,0,0,0,0,8,0,0,0,0,0,0,0,0,0,0,0,0,3,1,0,1,0,1
Bottes du Gardien des Egouts,Bottes,83,50,0,0,0,0,0,0,15,0,0,0,0,0,0,0,6,0,0,0,0,0,0,0,0,0,0,0,0,0,0,0,0,0,0,0,10,0,0,0,4,0,0,0,0,1
Bottes Ouroboulos,Bottes,83,80,15,0,30,30,0,0,0,0,0,5,0,5,5,0,0,0,0,0,0,0,0,0,0,0,0,0,0,0,0,0,0,0,0,4,0,0,0,0,4,0,0,0,0,1
Sabots de Redolphe,Bottes,85,60,0,0,40,0,40,0,0,0,0,0,6,0,6,0,0,5,0,0,0,0,0,0,0,0,0,0,0,0,0,0,0,4,0,0,0,0,0,0,3,0,0,0,0,1
Bottes du Craqueleur Legendaire,Bottes,86,0,0,25,0,0,25,0,0,0,0,0,0,0,0,0,5,0,0,0,0,7,7,0,0,0,0,0,0,0,0,0,0,0,0,0,0,0,0,0,0,0,5,0,0,1
Bloptes Multicolores Royales,Bottes,90,50,25,0,0,0,0,0,30,0,0,0,0,0,0,0,0,0,0,0,10,10,10,10,0,0,0,3,0,0,0,0,0,0,0,0,0,0,0,0,0,0,0,0,0,1
Mules du Dragon Cochon,Bottes,91,70,25,0,0,40,0,0,0,0,0,0,0,0,0,0,3,0,0,0,10,0,10,10,0,0,0,0,0,0,0,0,0,0,0,0,10,0,0,0,0,1,0,0,0,1
Bottes de Choudini,Bottes,92,0,20,40,0,40,0,0,0,7,0,0,6,0,6,0,0,0,0,0,0,0,0,0,0,0,0,0,0,0,0,0,0,0,0,0,0,0,7,0,4,0,0,0,0,1
Bottes Soyeuses,Bottes,93,100,25,0,0,40,0,0,0,0,0,0,0,0,5,0,0,0,0,0,0,0,0,0,0,0,0,7,0,0,0,0,0,0,0,0,10,0,0,0,0,0,0,1,0,1
Bottes Dorees d'Hogmeiser,Bottes,95,70,40,0,0,0,50,0,0,0,0,0,0,0,0,0,6,0,0,0,12,0,12,12,0,0,0,0,0,0,0,0,0,0,0,0,0,0,0,0,8,2,0,0,0,0
Bottes Precieuses,Bottes,98,100,20,0,30,30,0,0,0,0,0,6,0,6,6,0,0,0,0,0,0,0,0,0,0,0,0,0,0,0,0,0,0,0,0,0,0,0,7,0,2,1,0,0,0,1
Bottes du Rat Blanc,Bottes,99,60,15,0,25,0,40,0,0,0,0,0,0,0,0,0,0,0,0,0,0,0,0,0,0,0,0,0,3,0,0,0,0,0,0,0,10,0,0,0,0,0,0,0,0,1
Bottes Horchons,Bottes,100,0,30,45,0,0,30,0,0,0,0,0,0,0,0,0,5,0,0,0,0,0,0,0,0,0,0,6,0,0,0,0,0,0,0,0,10,0,0,0,0,0,0,1,0,1
Bottes du Rat Noir,Bottes,101,60,30,0,0,0,35,0,0,0,0,0,0,0,0,0,0,0,0,0,0,0,0,0,0,4,0,0,0,0,25,10,0,0,0,0,0,0,0,0,0,0,0,0,0,1
Bottes du Berserkoffre,Bottes,102,100,20,40,0,0,40,0,0,0,0,0,6,0,0,6,0,0,0,0,0,0,0,0,0,0,0,0,0,0,0,0,0,0,0,0,0,0,0,7,3,1,0,0,0,1
Fourbabottes,Bottes,104,100,0,45,0,0,35,0,0,0,0,0,6,0,0,6,0,0,0,0,0,0,0,0,0,0,0,7,0,0,0,0,0,0,0,0,0,0,0,0,3,0,0,0,0,1
Protege-tibias Ancestraux,Bottes,110,130,35,0,35,50,0,0,0,0,0,0,0,0,0,0,6,0,0,0,7,0,0,0,0,0,0,0,0,0,0,0,0,0,0,0,15,0,0,0,0,0,0,0,0,1
Sandales Humeuses,Bottes,116,150,35,0,0,40,0,0,0,0,0,0,0,0,0,0,0,0,0,0,0,0,0,0,0,5,5,5,5,0,0,0,0,0,0,0,15,0,0,0,0,0,0,0,0,1
Bottes du Royalmouth,Bottes,118,150,30,40,0,40,0,0,0,0,10,0,8,0,8,0,0,0,0,8,0,0,0,8,0,0,0,0,0,0,0,0,0,0,0,0,10,0,5,0,0,0,8,0,0,1
Bottes du Pounicheur,Bottes,118,200,25,50,0,0,0,300,15,0,0,0,10,0,0,0,0,0,0,0,0,0,0,0,0,0,0,0,0,0,0,0,0,0,0,0,0,0,7,0,0,0,10,1,0,1
Bottes du Wabbit Cephale,Bottes,119,150,30,0,0,30,30,0,0,0,0,0,0,0,0,0,0,0,0,0,0,0,0,7,0,0,0,10,0,0,0,0,-4,0,0,5,0,0,0,0,0,0,0,1,0,1
Bottes de Styx,Bottes,120,150,25,0,0,50,0,350,0,0,0,0,0,0,12,0,0,0,0,0,0,0,15,0,0,-7,0,10,0,0,0,0,0,0,0,5,15,0,0,0,0,0,0,0,0,1
Bottes de Will Killson,Bottes,120,150,25,0,0,0,50,350,0,0,0,0,0,0,0,12,0,0,0,0,0,0,0,15,0,0,-7,0,10,0,0,0,0,5,0,0,15,0,0,0,0,0,0,0,0,1
Cape du Capitaine Pirate,Cape,92,120,30,0,0,35,45,0,0,0,7,0,0,0,7,7,0,0,0,0,0,0,0,0,0,0,0,0,0,0,0,0,0,6,4,0,0,0,0,0,0,0,0,0,0,0
Caparak,Cape,94,80,30,0,30,0,30,0,0,0,0,0,0,5,0,5,0,0,0,0,0,0,0,0,0,0,0,7,0,0,0,0,0,0,0,0,15,0,0,0,4,0,0,0,0,0
Krosmape,Cape,100,100,15,40,0,40,0,0,0,0,10,0,5,0,5,0,0,0,0,0,0,0,0,0,0,0,0,0,0,0,0,0,0,0,3,0,0,0,0,0,4,0,5,0,0,0
Cape du Chef Bwork,Cape,100,50,0,0,0,40,40,0,0,0,0,0,0,0,0,0,4,0,0,4,4,4,4,4,0,5,0,5,5,0,0,0,0,0,0,0,5,0,0,0,0,0,0,0,0,0
Cape du Muloubar,Cape,100,120,30,0,40,0,40,0,0,0,15,5,0,5,0,5,0,0,0,0,0,0,0,0,0,0,0,0,0,0,0,0,0,0,0,0,15,0,0,5,6,0,0,0,0,0
Fourbacapa,Cape,101,120,30,35,0,0,45,0,0,0,0,0,6,0,0,6,0,0,0,0,0,0,0,0,0,0,7,0,0,0,0,0,0,0,0,0,0,0,0,6,0,1,0,0,0,0
Capitrouille,Cape,101,120,20,45,0,45,0,0,0,0,0,0,4,0,4,0,0,8,0,0,0,6,6,0,0,0,0,0,0,0,0,0,3,0,0,0,10,0,0,0,0,1,0,1,0,0
Cape du Rat Blanc,Cape,102,70,20,0,30,0,40,0,0,0,0,0,0,0,0,0,0,0,0,6,0,0,0,6,0,6,0,0,0,0,0,0,0,0,0,0,0,0,0,0,0,0,0,1,0,0
Cape du Dragon Cochon,Cape,103,110,0,0,0,40,0,0,0,0,0,0,0,0,0,0,6,0,0,5,5,5,5,5,0,6,0,0,6,0,0,0,0,0,0,0,15,0,0,0,0,0,0,0,0,0
Cape Precieuse,Cape,104,100,20,0,30,30,0,0,0,0,0,6,0,6,6,0,0,0,0,0,0,0,0,0,0,6,0,0,6,0,0,0,0,0,0,0,0,0,10,0,2,0,0,0,0,0
Cape du Rat Noir,Cape,105,70,20,0,0,0,40,0,0,0,0,0,0,0,0,0,5,0,0,0,0,0,0,0,6,0,0,0,0,0,20,8,0,0,0,0,0,0,0,0,0,0,0,0,0,0
Abracapa Ancestrale,Cape,112,100,25,0,30,45,0,200,10,0,0,0,0,0,0,0,5,0,0,0,0,0,0,0,0,0,0,10,10,0,0,0,0,0,0,0,10,0,0,0,0,0,0,0,0,0
Cape des Ecaflipuces,Cape,112,200,25,50,0,0,30,0,0,0,0,0,7,0,0,7,0,0,0,7,0,7,7,0,0,0,0,0,0,0,0,0,4,0,0,0,0,0,0,4,0,0,0,1,0,0
Cape Xelomorphe,Cape,125,200,30,30,0,40,0,0,15,0,0,0,7,0,7,0,0,0,0,0,0,0,0,0,0,0,0,0,0,0,0,0,0,0,0,5,15,0,0,10,0,0,10,1,0,0
Corbacape Mastralis,Cape,127,120,50,0,0,60,0,0,0,0,0,0,0,0,0,0,0,0,0,0,0,0,0,0,10,0,10,10,0,0,0,0,0,0,0,0,10,0,0,0,0,0,0,2,0,0
Capterre,Cape,129,150,30,0,50,0,50,0,0,15,0,7,0,7,0,7,0,0,0,0,0,0,0,0,0,0,0,10,0,0,0,0,0,0,0,0,15,0,7,0,0,0,0,0,0,0
Cape ceremoniale du Seigneur des Rats,Cape,130,150,20,30,0,0,45,0,0,0,0,0,0,0,0,0,6,0,0,0,6,0,0,6,0,7,0,0,7,0,0,0,0,0,0,0,15,0,0,0,0,0,6,1,0,0
Gruchape,Cape,130,150,30,0,0,0,50,0,0,0,0,0,0,0,0,7,0,0,0,0,0,0,0,0,0,10,0,0,0,0,0,0,7,0,0,0,15,0,5,0,4,1,0,0,0,0
Caracape Minotoris,Cape,121,0,0,0,0,0,20,0,20,0,0,0,0,0,0,0,0,0,0,15,15,15,15,15,0,10,10,10,10,0,0,0,0,0,0,0,0,0,0,0,0,0,0,0,0,0
Kabuto,Coiffe,101,100,0,0,0,0,0,150,35,0,0,0,0,0,0,0,6,0,0,0,0,0,0,0,0,0,6,6,0,0,0,0,0,0,0,0,0,0,0,0,0,1,6,0,0,0
Masque Iproquo,Coiffe,102,150,0,0,0,40,40,0,0,0,0,0,0,0,0,0,0,0,0,0,0,0,0,0,0,6,6,0,0,0,0,0,5,0,0,0,0,0,0,0,4,0,0,1,0,0
Scaramouchapeau,Coiffe,102,0,20,0,0,70,0,0,0,0,0,0,0,0,7,0,0,0,10,0,0,0,0,0,0,7,7,0,0,0,0,0,0,0,0,0,0,0,0,10,0,0,0,1,0,0
Araknacoiffe Velue,Coiffe,106,150,30,0,0,0,0,300,30,10,0,0,0,0,0,0,0,0,10,0,0,0,0,0,0,0,0,0,0,0,0,0,0,0,0,0,10,0,5,0,0,0,0,-1,0,0
Coiffe du Bimd'Oule,Coiffe,110,150,0,0,0,40,40,300,25,12,0,0,0,0,0,0,0,0,0,0,7,0,0,0,0,7,0,0,0,0,0,0,0,0,0,0,20,0,0,0,3,1,0,0,0,0
Casque de l'Ecumouth,Coiffe,127,150,25,0,0,40,40,0,0,0,0,0,0,0,10,10,0,0,10,10,0,0,0,0,0,10,0,0,0,0,0,0,0,0,0,0,20,0,0,0,0,0,0,1,0,0
Couronne du Tofu Royal,Coiffe,128,200,35,0,0,0,60,0,0,0,0,0,0,0,0,0,0,0,0,0,0,0,0,0,0,0,-6,0,8,0,0,0,0,0,0,0,0,0,0,0,0,0,0,0,-1,1
Chapeau de la Gamine Zoth,Coiffe,128,0,50,0,0,0,60,0,0,0,0,0,0,0,0,0,10,0,0,10,0,0,0,10,10,0,0,0,10,0,0,0,0,0,0,0,20,0,0,0,0,0,0,0,0,0
Sombrero d'El Piko,Coiffe,128,100,30,40,0,40,40,0,0,0,0,0,7,0,7,7,0,0,0,0,0,0,0,0,0,0,0,0,0,0,0,0,0,0,7,0,15,0,0,7,4,1,0,0,0,0
Doro le Blak,Coiffe,129,0,50,0,0,60,0,0,0,0,0,0,0,0,0,0,10,0,0,0,0,0,0,0,10,10,0,0,0,0,0,0,0,0,0,0,30,0,0,0,0,0,0,0,0,0
Blopanneau Multicolore Royal,Anneau,90,40,25,0,0,0,0,0,25,0,0,0,0,0,0,0,0,0,0,0,0,0,0,0,0,0,0,0,3,0,0,0,0,0,0,0,0,0,0,0,0,1,5,0,0,0
Alliance du Capitaine Pirate,Anneau,94,90,20,0,0,35,25,0,0,0,4,0,0,0,4,4,0,0,0,0,0,0,0,0,0,0,0,0,0,0,0,0,0,4,0,0,0,0,3,0,0,0,0,0,0,0
Gantelet du Gorgouille,Anneau,97,50,20,0,0,0,0,0,30,0,8,4,4,4,0,0,0,0,0,0,0,0,0,0,0,0,0,0,0,0,0,0,0,0,0,3,5,0,0,3,0,1,0,0,0,0
Bracelet Tmotiv,Anneau,104,120,0,0,0,0,0,0,30,0,0,0,6,6,6,6,0,0,0,0,0,0,0,0,0,0,0,0,0,0,0,0,0,0,0,0,0,0,0,0,4,0,0,0,0,0
Anneau du Dragon Cochon,Anneau,108,80,25,0,35,35,35,150,5,0,0,0,0,0,0,0,5,0,0,0,0,0,0,0,0,0,0,0,0,0,0,0,0,0,0,0,10,0,0,0,4,0,0,0,0,0
Abranneau Ancestral,Anneau,113,130,35,0,30,40,0,0,0,0,0,0,0,0,0,0,0,0,0,0,0,0,0,0,0,0,6,6,0,0,0,0,0,0,0,0,10,0,0,0,0,0,0,0,0,0
Bague Moutheuze,Anneau,121,150,20,0,0,40,0,0,0,0,0,0,0,0,10,0,0,0,10,0,0,0,0,15,0,0,0,0,0,0,0,0,0,0,0,5,0,0,0,0,5,0,0,0,0,0
Anneau du Wabbit Cephale,Anneau,122,100,0,0,0,30,30,0,0,0,0,0,0,0,10,10,0,0,0,0,0,0,0,0,0,0,0,0,0,0,0,0,-4,0,0,6,0,0,0,0,0,0,10,1,0,0
Anneau Moutheur,Anneau,127,150,20,0,0,0,40,0,0,0,0,0,0,0,0,10,0,10,0,0,0,0,15,0,0,0,0,0,0,0,0,0,0,0,5,0,20,0,0,0,0,0,0,0,0,0
Anneau du Dragoeuf,Anneau,128,150,20,0,0,0,0,0,25,0,0,0,0,0,0,0,6,0,0,0,0,0,0,0,0,0,0,0,0,0,0,0,0,0,0,0,15,0,0,0,0,1,6,0,0,0
Anneau d'El Piko,Anneau,130,150,15,30,0,30,30,0,0,0,0,0,5,0,5,5,0,0,0,0,0,0,0,0,0,0,0,0,0,0,0,0,7,0,0,0,0,0,0,7,0,0,0,0,0,0
Anneau Ceremonial du Seigneur des Rats,Anneau,131,130,0,0,0,0,40,0,10,0,0,0,0,0,0,0,6,0,0,0,7,7,0,0,0,0,0,0,7,0,0,0,0,0,0,0,15,0,0,0,4,0,0,0,0,0
Nageanneau,Anneau,136,120,40,0,0,30,30,0,15,0,0,0,0,0,7,7,0,0,0,0,7,7,0,0,0,0,7,0,0,0,0,0,0,0,0,0,0,0,0,-4,0,0,0,1,0,0
Anneau du Mansot Royal,Anneau,140,120,30,0,30,0,0,0,20,0,0,0,0,10,10,0,0,0,10,7,7,0,0,7,0,0,0,0,0,0,0,0,0,0,0,0,0,0,0,5,3,0,0,0,0,0
Masque du Sergent Zoth,Coiffe,133,200,20,0,0,60,0,400,0,0,0,0,0,0,0,0,7,0,0,0,0,0,0,0,-6,0,10,10,0,0,0,0,0,0,0,0,20,0,0,0,5,0,0,0,0,0
Bonnet KO,Coiffe,151,300,40,0,0,0,0,400,50,0,0,0,0,0,0,0,0,10,0,0,10,0,0,0,0,10,0,0,0,0,0,0,6,0,0,0,0,0,0,10,0,0,0,0,1,-1
Chapeau de Ben le Ripate,Coiffe,154,250,0,60,0,0,60,0,20,0,0,0,10,0,0,10,0,10,0,10,0,0,10,0,0,0,10,0,0,0,0,0,0,0,0,0,0,0,-4,5,4,0,7,0,0,0
Coiffe de Grozilla,Coiffe,154,200,40,0,0,50,50,0,0,0,15,0,0,0,8,8,0,0,0,0,0,15,0,0,10,0,0,0,0,0,0,0,0,0,0,0,20,0,4,0,2,0,0,1,0,0
Masque Vaudou Jav,Coiffe,158,-101,50,0,0,80,0,500,15,0,0,0,0,0,0,0,15,0,0,0,0,0,14,0,0,0,0,14,0,0,0,0,0,0,0,0,20,0,0,0,5,0,0,1,0,0
Masque Vaudou Sarbak,Coiffe,158,-101,50,0,0,0,80,500,15,0,0,0,0,0,0,0,15,0,0,0,0,0,0,14,0,0,0,0,14,0,0,0,0,0,0,0,20,0,0,0,5,0,0,1,0,0
Masque Vaudou Tam,Coiffe,158,-101,50,0,0,0,0,500,60,0,0,0,0,0,0,0,15,0,0,14,0,0,0,0,14,0,0,0,0,0,0,0,0,0,0,0,20,0,0,0,5,0,0,1,0,0
Le Nahitse,Coiffe,159,0,50,60,0,0,60,0,0,0,0,0,0,0,0,0,10,0,0,0,12,0,0,12,0,12,0,0,12,0,0,0,0,0,0,0,15,0,0,0,0,0,0,1,0,0
Casque de Metag Robill,Coiffe,160,250,50,0,0,0,0,400,50,0,0,0,0,0,0,0,0,10,0,0,0,0,0,0,10,0,0,0,0,0,0,0,0,0,0,0,25,0,0,8,5,1,0,0,0,0
Coiffe de l'Orphelin,Coiffe,160,200,30,0,0,0,60,0,0,0,12,0,0,0,0,7,0,12,0,0,0,0,0,0,0,0,0,10,0,0,0,0,0,0,0,7,20,0,0,0,0,2,0,0,0,0
Sandales Titude,Bottes,122,175,35,0,0,50,50,0,0,0,0,0,0,0,0,0,0,0,0,0,0,0,0,0,7,0,7,0,0,0,0,0,0,0,0,0,15,0,0,0,0,0,0,0,0,1
Bottes de Frigostine,Bottes,142,175,20,0,0,50,40,0,0,0,0,0,0,0,10,10,0,0,10,0,10,0,10,0,0,0,0,0,0,0,0,0,0,0,0,0,20,0,5,0,2,1,0,0,0,1
Sandales Gorithme,Bottes,146,250,0,0,50,0,50,300,0,0,0,7,0,7,0,7,0,0,0,0,0,10,0,0,7,0,7,0,0,0,0,0,0,0,0,0,10,0,5,-4,3,0,0,0,0,1
Bottes du Nowel Cauchemardesque,Bottes,150,200,30,0,0,50,0,0,0,0,0,0,15,0,0,0,0,0,0,0,0,0,0,20,0,0,10,0,0,0,0,0,0,0,0,5,15,0,0,5,0,0,0,1,0,1
Bottes Phossiles,Bottes,151,250,30,0,0,0,0,0,50,12,0,6,6,6,6,6,0,0,0,0,0,0,0,0,0,0,0,0,0,0,0,0,0,0,0,0,0,0,0,0,3,0,0,0,0,1
Bottes de Grozilla,Bottes,155,200,30,0,0,50,50,0,0,0,0,0,0,0,10,10,0,0,15,0,0,0,0,0,0,0,0,6,6,0,0,0,3,0,0,0,15,0,5,0,3,0,0,0,0,1
Bottes de Cantile,Bottes,156,200,40,0,30,0,0,0,30,0,0,10,0,10,0,10,0,0,0,0,0,0,10,10,0,0,0,0,0,0,0,0,4,0,0,0,15,0,0,5,0,0,0,1,0,1
Cape Ricieuse,Cape,131,150,25,0,30,0,30,0,20,0,0,5,0,5,0,5,0,10,0,0,7,0,0,0,0,0,7,0,7,0,0,0,0,0,0,0,20,0,5,0,2,0,0,0,0,0
Cape du Mansot Royal,Cape,144,200,35,0,45,45,0,0,0,0,0,0,0,10,10,0,0,0,10,0,0,10,0,10,0,7,0,0,0,0,0,0,0,0,0,0,10,0,0,5,0,0,0,1,0,0
Cape du Pere Phorreur,Cape,146,250,30,40,0,40,0,0,0,0,0,0,10,0,10,0,0,10,0,0,0,0,0,0,0,0,10,0,0,0,0,0,0,0,0,0,0,0,0,7,4,1,0,0,0,0
Cape Itaineflam,Cape,148,200,30,0,0,0,50,300,15,12,0,0,0,0,0,0,0,0,0,10,10,0,0,0,0,10,0,-6,10,0,15,0,0,0,0,0,20,0,0,0,3,0,0,0,0,0
Cape Phossile,Cape,149,200,50,0,0,0,0,0,50,12,0,0,0,0,0,0,0,0,0,0,0,10,0,10,0,10,0,0,0,0,0,0,0,0,0,0,25,0,0,0,3,0,0,0,0,0
Pelerine d'Augilol,Cape,151,300,40,0,0,0,0,0,50,10,0,0,0,0,0,0,0,0,0,0,0,0,10,0,0,0,0,10,0,0,0,0,0,6,0,0,0,0,10,0,7,0,0,1,-1,1
Cape Souveraine du Roissingue,Cape,152,200,40,40,0,60,60,0,0,0,0,0,0,0,0,0,7,0,0,0,0,0,10,0,10,10,0,0,0,0,0,0,0,0,0,0,15,0,0,0,1,0,0,0,0,0
Cape de Cantile,Cape,153,200,30,0,50,0,50,0,0,0,0,10,0,10,0,10,0,0,0,0,10,10,10,0,0,0,0,0,0,0,0,0,4,0,0,0,15,0,0,5,1,2,0,0,0,0
Cape du Kaniblou,Cape,160,250,30,0,0,60,0,0,0,0,0,0,0,0,10,0,0,15,0,0,0,0,0,0,0,0,0,0,10,0,0,0,10,0,0,0,20,0,6,0,4,0,0,0,0,0
Casque Dragoeuf,Coiffe,128,200,0,0,0,0,0,0,0,0,0,0,0,0,0,0,0,0,0,0,0,0,0,0,13,13,13,13,13,0,0,0,0,0,0,0,0,0,0,0,0,0,0,0,0,0
Casque d'Ali Grothor,Coiffe,132,250,40,0,0,0,0,0,0,0,0,0,0,0,0,0,0,0,0,0,0,0,0,0,0,0,10,10,0,0,0,0,0,0,0,0,15,0,0,10,4,0,0,1,0,0
Coiffe Medusoide,Coiffe,138,200,30,0,0,40,30,0,0,0,0,0,0,0,5,7,0,0,0,0,0,0,0,0,0,7,7,0,0,0,0,0,7,0,0,0,15,0,0,-4,0,0,0,1,0,0
Fantomasque,Coiffe,156,200,35,0,35,35,35,0,15,0,0,10,0,10,10,7,0,0,0,7,0,0,0,0,0,0,0,0,7,0,0,0,0,0,0,0,20,0,5,0,4,0,0,0,0,0
Coiffe du Minotot,Coiffe,157,270,35,50,0,50,0,200,25,0,0,0,0,0,0,0,0,0,0,0,0,0,0,0,0,6,0,0,0,0,0,0,0,0,0,0,25,0,0,0,5,0,8,0,0,0
Ceinture Sula,Ceinture,125,200,0,0,0,50,50,0,0,0,0,0,0,0,0,0,0,0,0,12,0,0,0,0,7,0,7,0,0,0,20,20,0,0,0,0,20,0,0,0,0,0,0,0,0,0
Xenature,Ceinture,125,200,0,50,0,0,50,300,0,0,0,0,0,0,0,0,0,0,0,0,0,0,0,0,5,5,0,0,5,0,0,0,0,0,0,0,20,0,0,0,0,0,5,0,0,0
Ceinture Claire en Abrakleur,Ceinture,126,200,40,0,45,0,45,300,10,0,0,0,0,0,0,0,0,0,0,0,0,0,0,0,10,10,0,0,0,0,0,0,0,0,0,0,20,0,0,0,0,0,0,0,0,0
Ceinture du Capitaine Ekarlatte,Ceinture,128,150,30,0,30,30,0,0,15,0,0,7,7,7,7,7,0,0,0,0,0,0,0,0,0,7,0,0,0,0,0,0,0,0,0,0,0,0,0,0,3,0,0,1,0,0
Ceinture Ceremoniale du Seigneur des Rats,Ceinture,133,200,25,30,0,0,50,0,10,0,0,0,0,0,0,0,10,0,0,10,0,0,10,0,0,0,0,8,0,0,0,0,0,0,0,0,15,500,0,0,0,1,0,0,0,0
Paniglou,Ceinture,137,200,40,0,0,45,0,0,15,0,-7,10,0,0,10,0,0,0,0,0,0,0,10,0,0,7,0,0,7,0,0,0,0,0,0,0,20,0,5,0,0,0,0,1,0,0
Ceinture de Frigostine,Ceinture,140,225,25,0,0,0,60,0,0,0,15,0,0,0,0,12,0,10,0,0,0,0,0,15,0,0,10,0,0,0,0,0,0,0,0,0,15,0,0,-4,4,0,0,0,0,0
Nageoiture,Ceinture,144,200,30,0,0,30,50,0,0,0,0,0,0,0,12,7,0,0,0,0,0,12,0,0,0,10,0,0,0,0,0,0,0,0,0,0,15,0,0,-4,4,1,0,0,0,0
Ceinture Phossile,Ceinture,147,200,0,0,0,0,0,0,40,0,0,8,8,8,8,8,0,0,20,0,0,0,0,0,0,0,6,0,6,0,0,0,0,0,0,0,0,0,0,0,0,1,0,1,0,0
Ceinture Bitoufale de Prosper Youpla,Ceinture,148,0,50,0,50,0,50,300,0,0,0,0,0,0,0,0,5,0,0,0,0,0,0,0,10,0,10,0,10,0,0,0,0,0,0,0,20,0,0,0,2,0,5,0,0,0
Slip Hie,Ceinture,152,250,0,0,0,40,40,400,15,0,0,0,0,0,7,7,0,0,0,0,0,0,0,0,0,7,0,7,0,0,0,0,0,0,0,0,20,0,0,5,3,0,0,0,0,0
Ceinture du Frelon Noir,Ceinture,153,250,30,0,40,0,40,0,0,0,0,8,0,8,0,8,0,0,0,0,0,0,0,0,0,7,0,0,7,0,0,0,0,4,0,0,15,0,6,0,5,0,0,-1,0,0
Ceinture de Zaitoshwan,Ceinture,153,250,40,0,40,40,0,300,0,0,0,10,0,10,7,0,0,0,0,0,10,0,0,0,0,7,0,0,0,0,0,0,0,0,0,0,0,0,0,5,4,1,0,0,0,0
Ceinture du Pere Phorreur,Ceinture,154,200,40,50,0,50,0,0,0,0,0,0,10,0,10,0,0,0,0,0,0,10,0,0,0,0,0,0,7,0,0,0,0,0,0,0,0,0,0,10,4,0,0,1,0,0
Ceinture de Ben le Ripate,Ceinture,157,230,30,0,0,0,50,0,0,0,0,0,10,0,0,10,0,10,0,0,10,0,10,0,0,0,0,0,0,0,0,0,0,0,0,0,15,0,-4,5,4,0,10,0,0,0
Ceinture de Grozilla,Ceinture,158,220,40,0,0,40,40,0,0,0,0,0,0,0,10,12,0,0,0,15,0,15,0,15,0,0,0,0,0,0,0,0,0,0,0,6,20,0,0,-4,0,1,0,0,0,0
Ceinture du Kaniblou,Ceinture,158,200,40,0,0,60,0,0,0,0,0,0,0,0,6,0,0,0,0,0,0,0,0,12,0,10,0,0,10,0,0,0,0,0,0,0,0,0,5,0,3,0,0,1,0,0
Ceinture de l'Orfelin,Ceinture,158,200,30,0,0,0,60,0,15,0,12,0,0,0,0,7,0,0,0,0,0,0,12,0,0,5,0,7,0,0,0,0,0,0,0,5,0,0,0,0,4,0,0,1,0,0
Ceinture des Matougarous,Ceinture,160,250,40,0,60,60,0,0,0,12,0,10,0,10,10,0,0,0,0,0,0,0,0,0,0,7,0,0,0,0,0,0,0,0,0,5,0,0,0,0,5,0,0,0,0,0
Gant du Capitaine Ekarlatte,Anneau,132,150,30,0,0,0,30,0,15,15,15,0,0,0,0,0,0,0,0,0,0,0,0,0,0,0,0,0,0,0,0,0,0,0,0,0,0,0,0,0,3,1,0,0,0,0
Anneau Made,Anneau,141,150,30,0,0,0,40,200,0,0,7,0,0,0,0,7,0,0,0,7,0,0,0,0,0,0,0,0,0,0,0,0,0,0,0,0,10,0,0,0,0,0,7,0,0,0
Anneau Nobstant,Aneau,146,200,40,0,0,0,0,0,50,0,0,0,0,0,0,0,0,0,10,0,0,0,0,0,0,0,0,0,0,0,0,0,0,0,0,0,15,0,0,0,4,0,0,0,0,0
Anneau Frage,Anneau,148,150,30,40,0,40,40,300,0,0,0,0,0,0,0,0,0,0,0,7,0,7,0,0,0,0,0,0,0,0,0,0,0,0,0,0,0,0,5,0,0,1,10,0,0,0
Bracelet du Minotot,Anneau,149,130,30,0,0,40,0,200,10,0,0,0,0,0,0,0,6,0,0,0,7,7,0,0,0,0,0,6,0,0,0,0,0,0,0,0,20,0,0,0,0,0,6,0,0,0
Styxano,Anneau,150,200,40,0,0,60,0,350,0,0,0,0,0,0,10,0,0,0,0,0,0,0,15,0,0,-7,0,10,0,0,0,0,0,0,0,0,0,0,0,0,3,0,0,0,0,0
Willkillsano,Anneau,150,200,40,0,0,0,60,350,0,0,0,0,0,0,0,10,0,0,0,0,0,0,0,15,0,0,-7,0,10,0,0,0,0,0,0,0,0,0,0,0,3,0,0,0,0,0
Anneau de Cantile,Anneau,153,150,30,0,40,0,30,200,0,0,0,7,0,7,0,7,0,12,0,0,0,0,0,0,0,0,0,0,0,0,0,0,0,0,0,0,10,0,0,3,3,0,0,0,0,0
Crochet de Ben le Ripate,Anneau,155,150,30,40,0,0,40,0,0,0,0,0,7,0,0,7,0,10,0,10,10,0,0,0,0,0,0,0,0,0,0,0,0,0,0,0,10,0,-4,5,4,1,0,0,0,0
Sceau Souverain du Roissingue,Anneau,158,150,35,0,0,40,40,0,0,0,0,0,0,0,0,0,7,0,0,0,0,10,10,0,0,0,7,0,0,0,0,0,0,0,0,0,15,0,0,0,0,0,0,1,0,0
Torque Ancestral,Amulette,110,100,20,0,30,40,0,0,0,0,0,0,0,0,0,0,6,0,0,0,7,0,0,0,0,10,0,0,0,0,0,0,0,0,0,0,10,0,0,0,0,0,0,0,1,0
Collier des Ecaflipuces,Amulette,114,140,35,30,0,0,50,0,0,0,0,0,7,0,0,7,0,0,0,0,0,0,0,0,0,0,0,7,0,0,0,0,0,0,0,0,0,0,0,4,0,0,0,0,1,0
Amulette du Wabbit Cephale,Amulette,116,150,30,0,0,40,40,0,0,0,0,0,0,0,10,10,0,0,0,0,0,0,0,0,0,0,0,0,0,0,0,0,-6,0,0,6,0,0,0,0,0,0,0,0,1,0
La Feuille de Printemps,Amulette,123,70,0,0,0,50,50,0,0,0,0,0,0,0,0,0,10,0,0,0,0,0,0,0,0,5,0,5,0,0,0,0,0,0,0,0,15,0,0,0,0,0,0,2,1,0
Amulette du Dragoeuf,Amulette,124,100,40,0,0,0,50,300,0,0,0,0,0,0,0,0,7,0,0,0,6,0,0,0,0,6,0,0,0,0,20,0,0,0,0,0,25,0,0,0,2,0,0,0,1,0
Amulette Elementaire,Amulette,127,0,0,50,50,50,50,0,0,0,0,0,3,3,3,3,0,0,0,0,0,0,0,0,0,8,8,8,8,0,0,0,0,0,0,0,0,0,0,0,0,0,0,1,1,0
Gruchette,Amulette,131,200,25,0,0,0,40,0,0,0,0,0,0,0,0,10,0,0,0,0,0,0,0,0,0,0,10,0,0,0,0,0,5,0,0,0,15,0,0,0,4,0,0,0,1,0
Amulette d'El Piko,Amulette,132,100,40,25,0,25,25,0,0,0,0,0,0,0,0,0,0,0,0,0,0,0,0,0,10,0,10,0,0,0,0,0,5,0,0,0,0,0,0,5,0,0,0,0,1,0
Collier Ceremonial du Seigneur des Rats,Amulette,134,150,25,30,0,0,40,400,0,0,0,0,0,0,0,0,10,0,0,0,0,0,0,0,10,0,0,0,0,0,0,0,0,0,0,0,15,0,0,0,0,0,0,0,1,0
Talisman Doline,Amulette,137,150,20,0,40,0,40,0,0,0,0,8,0,8,0,8,0,10,0,0,10,0,0,0,0,0,10,0,0,0,0,0,0,0,0,0,20,0,0,0,-1,0,0,0,1,0
La Meulette,Amulette,143,200,30,0,50,0,0,0,15,0,0,0,0,0,0,0,4,0,0,0,0,0,0,0,0,0,0,10,10,0,0,0,0,0,0,0,20,0,0,0,3,0,0,0,1,0
Amulette de Frigostine,Amulette,147,200,30,0,0,0,40,0,25,0,0,0,15,0,15,10,0,0,0,0,0,12,0,0,7,0,0,0,0,0,0,0,0,0,0,0,20,0,5,0,3,0,0,0,1,0
Porte-Malheur du Nowel Cauchemardesque,Amulette,150,200,30,0,0,0,50,0,0,0,10,0,0,15,0,0,0,0,0,0,0,0,20,0,0,10,0,0,0,0,0,0,5,0,0,0,15,0,0,0,0,2,0,0,1,0
Amulette de Grozilla,Amulette,151,250,25,0,0,40,40,0,0,0,0,0,0,0,12,12,0,10,0,0,15,15,0,0,0,0,0,0,0,0,0,0,3,0,0,3,10,0,0,0,0,0,0,1,1,0
Collier du Tanukoui San,Amulette,152,250,40,0,0,0,50,700,0,0,0,0,0,0,0,0,10,0,0,10,0,0,0,0,10,0,0,0,0,0,0,0,0,0,0,0,0,0,0,0,0,0,10,0,1,0
Amulette du Pere Phorreur,Amulette,152,200,30,40,0,40,0,0,0,0,0,0,10,0,10,0,0,0,0,0,0,0,0,0,0,7,0,0,0,0,0,0,0,0,0,0,20,0,0,10,4,0,0,0,1,0
Talisman Choh,Amulette,154,250,35,45,0,0,45,0,0,0,0,0,10,0,0,10,0,-7,10,0,0,10,0,10,0,0,0,0,0,0,0,0,0,0,0,0,20,0,0,0,0,1,0,1,1,0
Amulette de Cantile,Amulette,156,200,20,0,40,0,40,0,0,0,0,12,0,12,0,12,0,0,0,15,0,0,0,0,0,0,0,0,0,0,0,0,5,0,0,0,15,0,0,4,2,0,0,1,1,0
Amulette de l'Orfelin,Amulette,157,250,40,0,0,0,50,0,0,0,12,0,0,0,0,10,0,0,0,0,0,0,0,0,0,0,10,0,0,0,0,0,-5,0,0,4,15,0,0,0,4,0,0,0,1,0
Collier du Minotot,Amulette,158,230,40,40,0,40,0,0,15,0,0,0,0,0,0,0,10,0,0,0,0,0,0,0,0,0,0,0,0,0,0,0,0,0,0,0,25,0,0,0,4,0,0,1,1,0
Zothulette,Amulette,159,300,50,0,0,0,0,0,50,0,0,0,0,0,0,0,10,0,0,0,0,0,0,0,10,10,0,0,0,0,0,0,0,0,0,0,20,0,0,0,5,0,10,1,0,0
Mourtheau,Arme,122,200,30,0,0,60,60,200,0,0,0,0,0,0,0,0,0,10,0,0,15,15,0,0,0,0,0,0,0,0,0,0,0,0,0,0,10,0,0,4,0,0,0,0,0,0
Masse du Corailleur Magistral,Arme,125,80,30,0,0,50,50,0,0,0,0,0,0,0,0,0,5,0,0,0,0,0,0,0,0,0,0,0,0,0,0,0,0,0,0,0,15,0,0,0,0,0,0,0,0,0
Baguette du Grand Glucid,Arme,134,150,25,0,0,40,40,0,0,0,0,0,0,0,8,8,0,0,0,0,0,0,0,0,0,10,0,0,0,0,0,0,0,0,0,4,15,0,0,0,5,2,10,0,0,0
Pelle Shattkitou,Arme,136,100,40,0,0,40,40,0,10,0,0,0,0,0,0,0,5,0,0,0,0,0,0,7,0,0,0,0,7,0,0,0,0,0,0,0,20,0,0,0,5,0,0,0,0,0
Kalypsoton,Arme,139,150,25,0,0,40,40,0,0,0,0,0,0,0,7,7,0,0,0,0,15,0,0,0,0,0,10,0,0,0,0,0,6,0,0,0,0,0,0,-4,4,1,0,0,0,0
Arc Hisedaisange,Arme,142,200,40,50,0,50,50,0,0,0,0,0,0,0,0,0,10,0,0,0,0,0,0,0,0,0,0,0,10,0,0,0,0,0,0,0,0,0,0,0,0,0,0,0,0,0
Racine de Floribonde,Arme,144,300,60,0,0,0,60,0,0,0,0,0,0,0,0,0,10,0,0,0,0,0,0,0,0,0,0,0,0,0,0,0,0,0,0,0,20,0,0,0,0,0,0,0,0,0
Griffe Pourpre,Arme,145,200,35,0,0,0,0,0,50,0,0,0,0,0,0,0,8,0,0,0,0,0,0,0,0,6,0,0,0,0,0,0,0,0,0,0,0,0,0,0,4,0,0,0,0,0
Baguette de Frigostine,Arme,149,150,25,0,0,0,30,0,30,0,0,8,12,0,0,8,0,10,0,0,0,0,0,0,0,7,0,0,7,0,0,0,5,-4,0,0,15,0,5,0,0,0,7,0,0,0
Marteau du Juge Lou,Arme,151,0,40,0,0,60,0,0,0,10,0,0,0,0,12,0,0,0,0,0,12,0,0,0,0,0,10,0,10,0,0,0,0,0,6,0,20,0,10,0,7,0,0,1,0,0
Hache a Lamelles,Arme,157,250,30,0,0,60,0,0,0,0,0,0,0,0,0,0,10,0,0,0,0,10,0,0,0,0,0,0,0,0,0,0,0,0,0,0,20,0,0,0,4,0,0,1,0,0
Hache Harnee,Arme,158,150,40,40,0,40,40,0,0,0,0,0,0,0,0,0,0,0,0,0,0,0,0,0,0,7,0,7,7,0,0,0,0,0,0,0,20,0,0,0,0,0,0,1,0,0
Kriss Toubal,Arme,149,200,30,50,0,50,30,0,0,0,0,0,0,0,0,0,6,0,0,0,10,0,10,0,0,0,0,0,0,0,0,0,0,0,0,0,20,0,0,0,4,2,0,0,0,0
Pelle Tonedjone,Arme,147,200,40,0,30,60,0,0,0,0,0,7,0,7,7,0,0,10,0,10,0,10,0,0,0,0,0,0,0,0,0,0,0,0,0,0,25,0,0,0,4,0,0,1,0,0
Crolier,Amulette,169,250,30,0,0,40,40,0,0,0,0,0,0,0,12,12,0,0,0,0,0,0,0,0,0,7,0,0,7,0,0,0,0,0,0,6,0,0,0,0,2,0,15,0,1,0
Amulette Ementaire Deluxe,Amulette,163,0,0,70,70,70,70,0,0,0,0,0,5,5,5,5,0,0,0,0,0,0,0,0,0,8,8,8,8,0,0,0,0,0,0,0,0,0,0,0,0,2,0,2,1,0
Collier Ye,Amulette,160,0,40,0,0,50,50,200,0,0,10,0,0,0,10,10,0,0,0,0,10,0,0,0,0,0,0,10,10,0,0,0,0,0,0,0,15,0,0,0,5,1,0,0,1,0
L'Epee Nice,Arme,177,150,0,0,50,0,40,200,0,0,0,0,0,0,0,0,0,0,0,10,0,10,0,0,0,8,0,8,8,0,0,0,0,0,0,0,0,0,0,0,6,0,0,0,0,1
Baton K'Tueuh,Arme,161,200,25,0,0,50,0,0,0,0,0,0,0,0,0,0,0,0,0,10,10,0,10,10,0,0,0,0,0,0,0,0,0,0,0,0,15,0,5,0,4,1,10,0,0,1
Karnak,Arme,158,250,35,0,0,0,50,0,0,0,0,0,0,0,0,0,8,0,0,0,0,0,0,0,7,0,0,0,7,0,0,0,0,0,0,0,0,0,0,0,0,0,0,0,0,1
Sandales Binosse,Bottes,166,250,40,0,0,0,50,300,0,0,0,0,0,0,0,10,0,0,0,0,0,0,0,10,0,0,7,7,0,0,0,0,0,0,0,0,20,0,0,-11,4,0,0,1,0,1
Les Maidartes,Bottes,131,200,50,0,0,60,0,300,0,0,0,10,0,0,10,10,0,10,0,0,7,0,0,7,0,0,0,0,0,0,0,0,0,0,0,0,20,0,-11,0,3,1,0,0,0,1
Cape Tivante,Cape,161,150,45,0,0,60,0,0,0,0,10,0,0,0,10,12,0,0,0,10,0,10,0,0,0,0,0,0,7,0,0,0,0,0,0,0,25,0,0,6,0,0,0,1,0,0
Cape des Matougarous,Cape,162,250,35,0,60,60,0,500,0,12,0,10,0,10,10,0,0,0,0,0,0,0,0,0,0,0,0,0,10,0,0,0,0,0,0,5,0,0,0,0,0,0,0,0,0,0
Cape du Korriandre,Cape,179,250,35,0,0,45,45,0,15,0,0,0,0,0,10,10,0,10,0,12,0,0,0,0,0,0,0,10,0,0,0,0,0,0,5,0,15,0,0,0,0,1,0,0,0,0
